%YAML 1.1
%TAG !u! tag:unity3d.com,2011:
--- !u!241 &24100000
AudioMixerController:
  m_ObjectHideFlags: 0
  m_CorrespondingSourceObject: {fileID: 0}
  m_PrefabInstance: {fileID: 0}
  m_PrefabAsset: {fileID: 0}
  m_Name: PlayerEffects
  m_OutputGroup: {fileID: 0}
  m_MasterGroup: {fileID: 24300002}
  m_Snapshots:
  - {fileID: 24500006}
  - {fileID: 245184942206373006}
  m_StartSnapshot: {fileID: 245184942206373006}
  m_SuspendThreshold: -80
  m_EnableSuspend: 1
  m_UpdateMode: 0
  m_ExposedParameters: []
  m_AudioMixerGroupViews:
  - guids:
    - 93dc1a0da976f77429a0b09720b198c7
    - 910b8346c00021644827eb474a870e9f
    - 106e847e7dbd9c2499db5976edf7765e
    - abcb67a8b99995443918d8b5dbcdf7ae
    - 56070710a8a848d48bec2c1fbe010a30
    name: View
  m_CurrentViewIndex: 0
  m_TargetSnapshot: {fileID: 245184942206373006}
--- !u!243 &24300002
AudioMixerGroupController:
  m_ObjectHideFlags: 0
  m_CorrespondingSourceObject: {fileID: 0}
  m_PrefabInstance: {fileID: 0}
  m_PrefabAsset: {fileID: 0}
  m_Name: Master
  m_AudioMixer: {fileID: 24100000}
  m_GroupID: 93dc1a0da976f77429a0b09720b198c7
  m_Children:
  - {fileID: 243398427466081188}
  - {fileID: 243818195891338308}
  - {fileID: 243946122011100196}
  - {fileID: 243625579413245376}
  m_Volume: 0764e3071f3406b459ff1a6ea5382de1
  m_Pitch: 074577bd3d8f4ec4da0f09b590848e56
  m_Effects:
  - {fileID: 24400004}
  m_UserColorIndex: 0
  m_Mute: 0
  m_Solo: 0
  m_BypassEffects: 0
--- !u!244 &24400004
AudioMixerEffectController:
  m_ObjectHideFlags: 3
  m_CorrespondingSourceObject: {fileID: 0}
  m_PrefabInstance: {fileID: 0}
  m_PrefabAsset: {fileID: 0}
  m_Name: 
  m_EffectID: f257a335333f9a94da710bae909f2afc
  m_EffectName: Attenuation
  m_MixLevel: f9975b9911954e747bdd43d762fb2fa2
  m_Parameters: []
  m_SendTarget: {fileID: 0}
  m_EnableWetMix: 0
  m_Bypass: 0
--- !u!245 &24500006
AudioMixerSnapshotController:
  m_ObjectHideFlags: 0
  m_CorrespondingSourceObject: {fileID: 0}
  m_PrefabInstance: {fileID: 0}
  m_PrefabAsset: {fileID: 0}
  m_Name: Default
  m_AudioMixer: {fileID: 24100000}
  m_SnapshotID: 571d685372892df4c80797431e3d58a7
  m_FloatValues:
    b8024bd15cb3bdf4a9ad5155090d7e85: 0
    0764e3071f3406b459ff1a6ea5382de1: 0
    f00275f8bdb934f448dbf11fdfa96baa: 0
    18af6dbffe6f08243b204b245cabffb9: 0
  m_TransitionOverrides: {}
--- !u!243 &243398427466081188
AudioMixerGroupController:
  m_ObjectHideFlags: 0
  m_CorrespondingSourceObject: {fileID: 0}
  m_PrefabInstance: {fileID: 0}
  m_PrefabAsset: {fileID: 0}
  m_Name: KirinVoice
  m_AudioMixer: {fileID: 24100000}
  m_GroupID: 910b8346c00021644827eb474a870e9f
  m_Children: []
  m_Volume: b8024bd15cb3bdf4a9ad5155090d7e85
  m_Pitch: 8e6c3abcad5f80b4a89b3e335e138f06
  m_Effects:
  - {fileID: 244537891595737626}
  m_UserColorIndex: 0
  m_Mute: 0
  m_Solo: 0
  m_BypassEffects: 0
--- !u!243 &243625579413245376
AudioMixerGroupController:
  m_ObjectHideFlags: 0
  m_CorrespondingSourceObject: {fileID: 0}
  m_PrefabInstance: {fileID: 0}
  m_PrefabAsset: {fileID: 0}
  m_Name: KirinEffects
  m_AudioMixer: {fileID: 24100000}
  m_GroupID: 56070710a8a848d48bec2c1fbe010a30
  m_Children: []
  m_Volume: bf17a5c1eafe1f44aa8133229a08b325
  m_Pitch: c7dc6c25aa089ad4aa7e517cf9f701a7
  m_Effects:
  - {fileID: 244239956733542776}
  m_UserColorIndex: 0
  m_Mute: 0
  m_Solo: 0
  m_BypassEffects: 0
--- !u!243 &243818195891338308
AudioMixerGroupController:
  m_ObjectHideFlags: 0
  m_CorrespondingSourceObject: {fileID: 0}
  m_PrefabInstance: {fileID: 0}
  m_PrefabAsset: {fileID: 0}
  m_Name: KirinMoves
  m_AudioMixer: {fileID: 24100000}
  m_GroupID: 106e847e7dbd9c2499db5976edf7765e
  m_Children: []
  m_Volume: 18af6dbffe6f08243b204b245cabffb9
  m_Pitch: ceaba66ed84d60845b3f0863df566917
  m_Effects:
  - {fileID: 244203186023368742}
  m_UserColorIndex: 0
  m_Mute: 0
  m_Solo: 0
  m_BypassEffects: 0
--- !u!243 &243946122011100196
AudioMixerGroupController:
  m_ObjectHideFlags: 0
  m_CorrespondingSourceObject: {fileID: 0}
  m_PrefabInstance: {fileID: 0}
  m_PrefabAsset: {fileID: 0}
  m_Name: KirinFootsteps
  m_AudioMixer: {fileID: 24100000}
  m_GroupID: abcb67a8b99995443918d8b5dbcdf7ae
  m_Children: []
  m_Volume: f00275f8bdb934f448dbf11fdfa96baa
  m_Pitch: 265ee67f255710b43ad2ac251129a8d4
  m_Effects:
  - {fileID: 244097743227711576}
  m_UserColorIndex: 0
  m_Mute: 0
  m_Solo: 0
  m_BypassEffects: 0
--- !u!244 &244097743227711576
AudioMixerEffectController:
  m_ObjectHideFlags: 3
  m_CorrespondingSourceObject: {fileID: 0}
  m_PrefabInstance: {fileID: 0}
  m_PrefabAsset: {fileID: 0}
  m_Name: 
  m_EffectID: 2354f0cab9da30449932d847069a18b8
  m_EffectName: Attenuation
  m_MixLevel: ef0ca4426101361448040b84d941ceda
  m_Parameters: []
  m_SendTarget: {fileID: 0}
  m_EnableWetMix: 0
  m_Bypass: 0
--- !u!244 &244203186023368742
AudioMixerEffectController:
  m_ObjectHideFlags: 3
  m_CorrespondingSourceObject: {fileID: 0}
  m_PrefabInstance: {fileID: 0}
  m_PrefabAsset: {fileID: 0}
  m_Name: 
  m_EffectID: a366aafdca8d3fe47afe694c5a5022e6
  m_EffectName: Attenuation
  m_MixLevel: 32b2158a7964d524390353463f314dd6
  m_Parameters: []
  m_SendTarget: {fileID: 0}
  m_EnableWetMix: 0
  m_Bypass: 0
--- !u!244 &244239956733542776
AudioMixerEffectController:
  m_ObjectHideFlags: 3
  m_CorrespondingSourceObject: {fileID: 0}
  m_PrefabInstance: {fileID: 0}
  m_PrefabAsset: {fileID: 0}
  m_Name: 
  m_EffectID: eb3747c935f005c44871a77854e57da4
  m_EffectName: Attenuation
  m_MixLevel: cd8abbcb4a17dd7438e7e54a1e1ad62a
  m_Parameters: []
  m_SendTarget: {fileID: 0}
  m_EnableWetMix: 0
  m_Bypass: 0
--- !u!244 &244537891595737626
AudioMixerEffectController:
  m_ObjectHideFlags: 3
  m_CorrespondingSourceObject: {fileID: 0}
  m_PrefabInstance: {fileID: 0}
  m_PrefabAsset: {fileID: 0}
  m_Name: 
  m_EffectID: 7883f913ca2b3644490460112304147b
  m_EffectName: Attenuation
  m_MixLevel: c321721836f0a4645bca22bff9efdfd1
  m_Parameters: []
  m_SendTarget: {fileID: 0}
  m_EnableWetMix: 0
  m_Bypass: 0
--- !u!245 &245184942206373006
AudioMixerSnapshotController:
  m_ObjectHideFlags: 0
  m_CorrespondingSourceObject: {fileID: 0}
  m_PrefabInstance: {fileID: 0}
  m_PrefabAsset: {fileID: 0}
  m_Name: KirinSet01
  m_AudioMixer: {fileID: 24100000}
  m_SnapshotID: 1407d03a4aa0bb04ab102b37f37f3723
  m_FloatValues:
    b8024bd15cb3bdf4a9ad5155090d7e85: -15.421314
    0764e3071f3406b459ff1a6ea5382de1: -0.025776558
    f00275f8bdb934f448dbf11fdfa96baa: -12.498478
    18af6dbffe6f08243b204b245cabffb9: -5.3230715
  m_TransitionOverrides: {}
